<?xml version="1.0" encoding="UTF-8"?>
<svg width="24px" height="18px" viewBox="0 0 24 18" version="1.1" xmlns="http://www.w3.org/2000/svg" xmlns:xlink="http://www.w3.org/1999/xlink">
    <!-- Generator: Sketch 52.4 (67378) - http://www.bohemiancoding.com/sketch -->
    <title>video</title>
    <desc>Created with Sketch.</desc>
    <g id="Page-1" stroke="none" stroke-width="1" fill="none" fill-rule="evenodd">
        <g id="video" fill="#CDCDCD" fill-rule="nonzero">
            <path d="M12,17.6 C12,17.6 12,17.6 12,17.6 C11.8,17.6 6.2,17.5 4.5,17.4 C4.4,17.4 4.3,17.4 4.2,17.4 C3.6,17.3 2.6,17.2 1.8,16.3 C1.1,15.5 0.8,13.9 0.8,13.8 C0.8,13.7 0.6,11.9 0.6,10 L0.6,8.3 C0.6,6.4 0.8,4.6 0.8,4.5 C0.8,4.3 1.1,2.7 1.8,1.9 C2.7,0.9 3.7,0.8 4.2,0.8 L4.3,0.8 C7.4,0.6 12,0.6 12.1,0.6 C12.2,0.6 16.8,0.6 19.8,0.8 L19.9,0.8 C20.4,0.8 21.4,0.9 22.3,1.9 C23,2.7 23.3,4.3 23.3,4.4 C23.3,4.5 23.5,6.3 23.5,8.2 L23.5,9.9 C23.5,11.8 23.3,13.6 23.3,13.7 C23.3,13.9 23,15.5 22.3,16.3 C21.4,17.3 20.4,17.4 19.9,17.4 L19.8,17.4 C16.7,17.6 12,17.6 12,17.6 Z M12,1.4 C11.9,1.4 7.4,1.4 4.3,1.6 L4.2,1.6 C3.8,1.6 3.1,1.7 2.4,2.4 C2,3 1.8,4.1 1.7,4.5 C1.7,4.5 1.5,6.3 1.5,8.1 L1.5,9.8 C1.5,11.6 1.7,13.4 1.7,13.5 C1.8,13.9 2,15 2.4,15.5 C3,16.1 3.7,16.2 4.2,16.3 C4.3,16.3 4.4,16.3 4.5,16.3 C6.2,16.5 11.7,16.5 11.9,16.5 C12,16.5 16.6,16.5 19.6,16.3 L19.7,16.3 C20.1,16.3 20.8,16.2 21.4,15.5 C21.9,15 22.1,13.9 22.1,13.5 C22.1,13.5 22.3,11.7 22.3,9.9 L22.3,8.2 C22.3,6.4 22.1,4.6 22.1,4.5 C22,4.1 21.8,3 21.4,2.5 C20.8,1.8 20.1,1.7 19.6,1.7 L19.5,1.7 C16.6,1.4 12.1,1.4 12,1.4 Z M9.7,12.5 C9.6,12.5 9.5,12.5 9.4,12.4 C9.2,12.3 9.2,12.1 9.2,12 L9.2,5.6 C9.2,5.4 9.3,5.3 9.4,5.2 C9.6,5 9.8,5 10,5.1 L15.9,8.3 C16.1,8.4 16.2,8.6 16.2,8.7 C16.2,8.9 16.1,9.1 15.9,9.1 L10,12.4 C9.9,12.5 9.8,12.5 9.7,12.5 Z M10.2,6.4 L10.2,11.2 L14.6,8.8 L10.2,6.4 Z" id="Shape"></path>
        </g>
    </g>
</svg>